{
  "name": "Node.js Homework Application",
  "jwtSecret": "superSecret",
  "development": {
    "username": "postgres",
    "password": "root",
    "database": "homework",
    "host": "127.0.0.1",
    "dialect": "postgres"
  },
  "test": {
    "username": "root",
    "password": null,
    "database": "database_test",
    "host": "127.0.0.1",
    "dialect": "mysql"
  },
  "production": {
    "username": "root",
    "password": null,
    "database": "database_production",
    "host": "127.0.0.1",
    "dialect": "mysql"
  }
}